koniec           x -0.5
koniec_pasu      x -0.335
koniec_vrcholu   x -0.297
zaciatok_vrcholu x  0.189
zaciatok_pasu    x  0.334
zaciatok_skatule x  0.461
zaciatok         x  0.5

vlavo               z  0.267
lavy_pas            z  0.160
lavy_zadny_vrchol   z  0.145
lavy_predny_vrchol  z  0.097
pravy_predny_vrchol z -0.097
pravy_zadny_vrchol  z -0.145
pravy_pas           z -0.160
vpravo              z -0.267

spodok_pasu    y 0
vrch_pasu      y 0.097
spodok_skatule y 0.174
vrch_skatule   y 0.273