A koniec_vrcholu   pravy_zadny_vrchol  vrch_skatule
B zaciatok_vrcholu pravy_predny_vrchol vrch_skatule
C zaciatok_vrcholu lavy_predny_vrchol  vrch_skatule
D koniec_vrcholu   lavy_zadny_vrchol   vrch_skatule

E koniec           vpravo              spodok_skatule
F zaciatok         vpravo              spodok_skatule
G zaciatok         vlavo               spodok_skatule
H koniec           vlavo               spodok_skatule

I koniec           vpravo              vrch_pasu
J zaciatok_skatule vpravo              vrch_pasu
K zaciatok_skatule vlavo               vrch_pasu
L koniec           vlavo               vrch_pasu

M koniec_pasu      vpravo              spodok_pasu
N zaciatok_pasu    vpravo              spodok_pasu
O zaciatok_pasu    vlavo               spodok_pasu
P koniec_pasu      vlavo               spodok_pasu

Q koniec_pasu      pravy_pas           spodok_pasu
R zaciatok_pasu    pravy_pas           spodok_pasu
S zaciatok_pasu    lavy_pas            spodok_pasu
T koniec_pasu      lavy_pas            spodok_pasu

U koniec           pravy_pas           vrch_pasu
V zaciatok_skatule pravy_pas           vrch_pasu
W zaciatok_skatule lavy_pas            vrch_pasu
X koniec           lavy_pas            vrch_pasu