A 0.004 0.363 - B 0.028 0.363 - F 0.028 0.695 - E 0.004 0.695
D 0.077 0.363 - A 0.101 0.363 - E 0.101 0.695 - H 0.077 0.695
C 0.052 0.363 - G 0.052 0.695 - F 0.028 0.695 - B 0.028 0.363
H 0.077 0.695 - G 0.052 0.695 - C 0.052 0.363 - D 0.077 0.363

D 0.031 0.609 - C 0.031 0.648 - B 0.070 0.648 - A 0.070 0.609

E 0.004 0.695 - F 0.028 0.695 - I 0.052 0.996 - I 0.052 0.996
F 0.028 0.695 - G 0.052 0.695 - I 0.052 0.996 - I 0.052 0.996
G 0.052 0.695 - H 0.077 0.695 - I 0.052 0.996 - I 0.052 0.996
H 0.077 0.695 - E 0.101 0.695 - I 0.052 0.996 - I 0.052 0.996