zaciatok       x -0.165
spica_zaciatok x  0
spica_koniec   x  0.165

vlavo           z  0.03
stred_vodorovny z  0
vpravo          z -0.03

hore         y  0.03
stred_zvisly y  0
dolu         y -0.03